<svg width="25" height="25" viewBox="0 0 25 25" fill="none" xmlns="http://www.w3.org/2000/svg">
    <path
        d="M19.875 0.00280762H6.375C5.53125 0.0340576 4.82812 0.330933 4.26562 0.893433C3.70312 1.45593 3.40625 2.15906 3.375 3.00281V4.50281H1.5C0.8125 4.56531 0.4375 4.94031 0.375 5.62781C0.4375 6.31531 0.8125 6.69031 1.5 6.75281H3.375V10.8778H1.5C0.8125 10.9403 0.4375 11.3153 0.375 12.0028C0.4375 12.6903 0.8125 13.0653 1.5 13.1278H3.375V17.2528H1.5C0.8125 17.3153 0.4375 17.6903 0.375 18.3778C0.4375 19.0653 0.8125 19.4403 1.5 19.5028H3.375V21.0028C3.40625 21.8466 3.70312 22.5497 4.26562 23.1122C4.82812 23.6747 5.53125 23.9716 6.375 24.0028H19.875C20.7188 23.9716 21.4219 23.6747 21.9844 23.1122C22.5469 22.5497 22.8438 21.8466 22.875 21.0028V3.00281C22.8438 2.15906 22.5469 1.45593 21.9844 0.893433C21.4219 0.330933 20.7188 0.0340576 19.875 0.00280762ZM5.625 21.0028V19.5028H6.75C7.4375 19.4403 7.8125 19.0653 7.875 18.3778C7.8125 17.6903 7.4375 17.3153 6.75 17.2528H5.625V13.1278H6.75C7.4375 13.0653 7.8125 12.6903 7.875 12.0028C7.8125 11.3153 7.4375 10.9403 6.75 10.8778H5.625V6.75281H6.75C7.4375 6.69031 7.8125 6.31531 7.875 5.62781C7.8125 4.94031 7.4375 4.56531 6.75 4.50281H5.625V3.00281C5.65625 2.53406 5.90625 2.28406 6.375 2.25281H9.375V21.7528H6.375C5.90625 21.7216 5.65625 21.4716 5.625 21.0028ZM20.625 21.0028C20.5938 21.4716 20.3438 21.7216 19.875 21.7528H11.625V2.25281H19.875C20.3438 2.28406 20.5938 2.53406 20.625 3.00281V21.0028Z"
        fill="#F88125" />
</svg>
