<svg width="15" height="15" viewBox="0 0 15 15" fill="none" xmlns="http://www.w3.org/2000/svg">
<path d="M7.5 1.625V2.5H10.125V1.625C10.125 1.36979 10.207 1.16016 10.3711 0.996094C10.5352 0.832031 10.7448 0.75 11 0.75C11.2552 0.75 11.4648 0.832031 11.6289 0.996094C11.793 1.16016 11.875 1.36979 11.875 1.625V2.5H13.1875C13.5521 2.51823 13.862 2.64583 14.1172 2.88281C14.3542 3.13802 14.4818 3.44792 14.5 3.8125V5.125H3.125V3.8125C3.14323 3.44792 3.27083 3.13802 3.50781 2.88281C3.76302 2.64583 4.07292 2.51823 4.4375 2.5H5.75V1.625C5.75 1.36979 5.83203 1.16016 5.99609 0.996094C6.16016 0.832031 6.36979 0.75 6.625 0.75C6.88021 0.75 7.08984 0.832031 7.25391 0.996094C7.41797 1.16016 7.5 1.36979 7.5 1.625ZM3.125 6H14.5V10.8125C14.4818 11.1771 14.3542 11.487 14.1172 11.7422C13.862 11.9792 13.5521 12.1068 13.1875 12.125H4.4375C4.07292 12.1068 3.76302 11.9792 3.50781 11.7422C3.27083 11.487 3.14323 11.1771 3.125 10.8125V6ZM1.8125 11.4688C1.83073 12.0339 2.02214 12.4987 2.38672 12.8633C2.7513 13.2279 3.21615 13.4193 3.78125 13.4375H11.2188C11.6198 13.474 11.8385 13.6927 11.875 14.0938C11.8385 14.4948 11.6198 14.7135 11.2188 14.75H3.78125C2.85156 14.7318 2.07682 14.4128 1.45703 13.793C0.83724 13.1732 0.518229 12.3984 0.5 11.4688V5.78125C0.536458 5.38021 0.755208 5.16146 1.15625 5.125C1.55729 5.16146 1.77604 5.38021 1.8125 5.78125V11.4688Z" fill="#858585"/>
</svg>
