{
  "file_generated_by": "FlutterFire CLI",
  "purpose": "FirebaseAppID & ProjectID for this Firebase app in this directory",
  "GOOGLE_APP_ID": "1:108002270100:ios:8b4aa453ffa2d4f1dd0d81",
  "FIREBASE_PROJECT_ID": "lms-notify-8b322",
  "GCM_SENDER_ID": "108002270100"
}